com\doranco\multitiers\entity\Note.class
com\doranco\multitiers\entity\Book.class
com\doranco\multitiers\entity\OrderLine.class
com\doranco\multitiers\entity\IdOrderLine.class
com\doranco\multitiers\entity\User.class
com\doranco\multitiers\entity\Order.class
com\doranco\multitiers\dao\BookDAO.class
com\doranco\multitiers\entity\IdNote.class
com\doranco\multitiers\entity\Identifier.class
com\doranco\multitiers\entity\Viewing.class
com\doranco\multitiers\entity\IdView.class
com\doranco\multitiers\dao\GenericDAO.class
com\doranco\multitiers\ejb\impl\PanierBean.class
