C:\Users\stagiaire\eclipse-workspace-1\library-root\library-ejb\src\main\java\com\doranco\multitiers\dao\BookDAO.java
C:\Users\stagiaire\eclipse-workspace-1\library-root\library-ejb\src\main\java\com\doranco\multitiers\ejb\impl\PanierBean.java
C:\Users\stagiaire\eclipse-workspace-1\library-root\library-ejb\src\main\java\com\doranco\multitiers\dao\GenericDAO.java
C:\Users\stagiaire\eclipse-workspace-1\library-root\library-ejb\src\main\java\com\doranco\multitiers\entity\Identifier.java
C:\Users\stagiaire\eclipse-workspace-1\library-root\library-ejb\src\main\java\com\doranco\multitiers\entity\User.java
C:\Users\stagiaire\eclipse-workspace-1\library-root\library-ejb\src\main\java\com\doranco\multitiers\entity\IdView.java
C:\Users\stagiaire\eclipse-workspace-1\library-root\library-ejb\src\main\java\com\doranco\multitiers\entity\Note.java
C:\Users\stagiaire\eclipse-workspace-1\library-root\library-ejb\src\main\java\com\doranco\multitiers\entity\Order.java
C:\Users\stagiaire\eclipse-workspace-1\library-root\library-ejb\src\main\java\com\doranco\multitiers\entity\IdNote.java
C:\Users\stagiaire\eclipse-workspace-1\library-root\library-ejb\src\main\java\com\doranco\multitiers\entity\IdOrderLine.java
C:\Users\stagiaire\eclipse-workspace-1\library-root\library-ejb\src\main\java\com\doranco\multitiers\entity\Viewing.java
C:\Users\stagiaire\eclipse-workspace-1\library-root\library-ejb\src\main\java\com\doranco\multitiers\entity\Book.java
C:\Users\stagiaire\eclipse-workspace-1\library-root\library-ejb\src\main\java\com\doranco\multitiers\entity\OrderLine.java
